…
#> Parameters: 
#>   method: qp-heuristic 
#>   kernel: linear  
#>   cost: 1 
#>   h: 1 
#>   s: 4 
#>   scale: TRUE 
#>   weights: FALSE 
#>  
#> Model info: 
#>   Levels of `y`: chr [1:5] "1" "2" "3" "4" "5"
#>   Features: chr [1:3] "V1" "V2" "V3"
#>   Number of iterations: 4
predict(fit, new_data = ordmvnorm)
#> # A tibble: 1,000 × 1
#>    .pred_class
#>    <fct>      
#>  1 2          
#>  2 2          
#>  3 2          
#>  4 2          
#>  5 2          
#>  6 4          
#>  7 4          
#>  8 4          
#>  9 4          
#> 10 4          
#> # … with 990 more rows
```
…
