…
      set.seed(8)
      mil_data <- generate_mild_df(nbag = 15, nsample = 20, positive_prob = 0.15,
        sd_of_mean = rep(0.1, 3))
      mdl1 <- mildsvm(mil_data)
      mdl2 <- mildsvm(mild(bag_label, bag_name, instance_name) ~ X1 + X2 + X3, data = mil_data)
      if (require(gurobi)) {
        mdl3 <- mildsvm(mil_data, method = "mip", control = list(nystrom_args = list(
          m = 10, r = 10)))
        predict(mdl3, mil_data)
      }
    Message <packageStartupMessage>
      Loading required package: gurobi
      Loading required package: slam
    Output
      # A tibble: 1,200 x 1
         .pred_class
         <fct>      
       1 0          
       2 0          
       3 0          
       4 0          
       5 0          
       6 0          
       7 0          
       8 0          
       9 0          
      10 0          
      # ... with 1,190 more rows
    Code
      predict(mdl1, new_data = mil_data, type = "raw", layer = "bag")
    Output
      # A tibble: 1,200 x 1
          .pred
          <dbl>
       1 -0.289
       2 -0.289
       3 -0.289
       4 -0.289
       5 -0.289
       6 -0.289
       7 -0.289
       8 -0.289
       9 -0.289
      10 -0.289
      # ... with 1,190 more rows
…
# `misvm()` examples work

    Code
      set.seed(8)
      mil_data <- generate_mild_df(nbag = 20, positive_prob = 0.15, sd_of_mean = rep(
        0.1, 3))
      df <- build_instance_feature(mil_data, seq(0.05, 0.95, length.out = 10))
      mdl1 <- misvm(x = df[, 4:123], y = df$bag_label, bags = df$bag_name, method = "heuristic")
      mdl2 <- misvm(mi(bag_label, bag_name) ~ X1_mean + X2_mean + X3_mean, data = df)
      if (require(gurobi)) {
        mdl3 <- misvm(x = df[, 4:123], y = df$bag_label, bags = df$bag_name, method = "mip")
      }
      predict(mdl1, new_data = df, type = "raw", layer = "bag")
    Output
      # A tibble: 80 x 1
         .pred
         <dbl>
       1 -1.04
       2 -1.04
       3 -1.04
       4 -1.04
       5  1.00
       6  1.00
       7  1.00
       8  1.00
       9 -1.00
      10 -1.00
      # ... with 70 more rows
…
      mil_data <- generate_mild_df(nbag = 20, positive_prob = 0.15, dist = rep(
        "mvnormal", 3), mean = list(rep(1, 10), rep(2, 10)), sd_of_mean = rep(0.1, 3))
      df <- build_instance_feature(mil_data, seq(0.05, 0.95, length.out = 10))
      cost_seq <- 2^seq(-5, 7, length.out = 3)
      mdl1 <- cv_misvm(x = df[, 4:123], y = df$bag_label, bags = df$bag_name,
      cost_seq = cost_seq, n_fold = 3, method = "heuristic")
      mdl2 <- cv_misvm(mi(bag_label, bag_name) ~ X1_mean + X2_mean + X3_mean, data = df,
      cost_seq = cost_seq, n_fold = 3)
      if (require(gurobi)) {
        mdl3 <- cv_misvm(x = df[, 4:123], y = df$bag_label, bags = df$bag_name,
        cost_seq = cost_seq, n_fold = 3, method = "mip")
      }
      predict(mdl1, new_data = df, type = "raw", layer = "bag")
    Output
      # A tibble: 80 x 1
         .pred
         <dbl>
       1 -1.00
       2 -1.00
       3 -1.00
       4 -1.00
       5  1.04
       6  1.04
       7  1.04
       8  1.04
       9 -1.13
      10 -1.13
      # ... with 70 more rows
…
